…
Since it is hard to make plots when each rank is column, I need to
change each column into value.

``` r
# test if it works
toy_df <- head(original2, 20)

toy_df %>% 
  pivot_longer(c("PARENTS", "SIBLING", "PARTNER", "COWORKER", "BOSS", "FRIEND", "STRANGER"), names_to = "ADDR-RANK", values_to = "FREQUENCY")
```

    # A tibble: 140 × 13
       `RESP-ID`   ATUSE RESP-…¹ ADDR-…² GENDE…³ SEXUA…⁴ AGE   LANGU…⁵ RACE  OCCUP…⁶
       <chr>       <chr> <chr>   <chr>   <chr>   <chr>   <chr>   <dbl> <chr> <chr>  
     1 R_9FRUk95l… dude… Non-Bi… Femini… <NA>    Gay     18-25       1 White Editor…
     2 R_9FRUk95l… dude… Non-Bi… Femini… <NA>    Gay     18-25       1 White Editor…
     3 R_9FRUk95l… dude… Non-Bi… Femini… <NA>    Gay     18-25       1 White Editor…
     4 R_9FRUk95l… dude… Non-Bi… Femini… <NA>    Gay     18-25       1 White Editor…
     5 R_9FRUk95l… dude… Non-Bi… Femini… <NA>    Gay     18-25       1 White Editor…
     6 R_9FRUk95l… dude… Non-Bi… Femini… <NA>    Gay     18-25       1 White Editor…
     7 R_9FRUk95l… dude… Non-Bi… Femini… <NA>    Gay     18-25       1 White Editor…
     8 R_25EnKuXy… dude… Femini… Femini… <NA>    Hetero  26-40       1 white Studen…
     9 R_25EnKuXy… dude… Femini… Femini… <NA>    Hetero  26-40       1 white Studen…
    10 R_25EnKuXy… dude… Femini… Femini… <NA>    Hetero  26-40       1 white Studen…
    # … with 130 more rows, 3 more variables: TERM <chr>, `ADDR-RANK` <chr>,
    #   FREQUENCY <dbl>, and abbreviated variable names ¹​`RESP-GENDER`,
    #   ²​`ADDR-GENDER`, ³​`GENDER-4-TEXT`, ⁴​SEXUALITY, ⁵​LANGUAGE, ⁶​OCCUPATION

``` r
# good to go
original2 %>% 
  pivot_longer(c("PARENTS", "SIBLING", "PARTNER", "COWORKER", "BOSS", "FRIEND", "STRANGER"), names_to = "ADDR-RANK", values_to = "FREQUENCY")
```

    # A tibble: 26,439 × 13
       `RESP-ID`   ATUSE RESP-…¹ ADDR-…² GENDE…³ SEXUA…⁴ AGE   LANGU…⁵ RACE  OCCUP…⁶
       <chr>       <chr> <chr>   <chr>   <chr>   <chr>   <chr>   <dbl> <chr> <chr>  
     1 R_9FRUk95l… dude… Non-Bi… Femini… <NA>    Gay     18-25       1 White Editor…
     2 R_9FRUk95l… dude… Non-Bi… Femini… <NA>    Gay     18-25       1 White Editor…
     3 R_9FRUk95l… dude… Non-Bi… Femini… <NA>    Gay     18-25       1 White Editor…
     4 R_9FRUk95l… dude… Non-Bi… Femini… <NA>    Gay     18-25       1 White Editor…
     5 R_9FRUk95l… dude… Non-Bi… Femini… <NA>    Gay     18-25       1 White Editor…
     6 R_9FRUk95l… dude… Non-Bi… Femini… <NA>    Gay     18-25       1 White Editor…
     7 R_9FRUk95l… dude… Non-Bi… Femini… <NA>    Gay     18-25       1 White Editor…
     8 R_25EnKuXy… dude… Femini… Femini… <NA>    Hetero  26-40       1 white Studen…
     9 R_25EnKuXy… dude… Femini… Femini… <NA>    Hetero  26-40       1 white Studen…
    10 R_25EnKuXy… dude… Femini… Femini… <NA>    Hetero  26-40       1 white Studen…
    # … with 26,429 more rows, 3 more variables: TERM <chr>, `ADDR-RANK` <chr>,
    #   FREQUENCY <dbl>, and abbreviated variable names ¹​`RESP-GENDER`,
    #   ²​`ADDR-GENDER`, ³​`GENDER-4-TEXT`, ⁴​SEXUALITY, ⁵​LANGUAGE, ⁶​OCCUPATION
…
    # A tibble: 0 × 5
    # Groups:   RESP-GENDER, ADDR-GENDER, TERM [0]
    # … with 5 variables: RESP-GENDER <chr>, ADDR-GENDER <chr>, TERM <chr>,
    #   ADDR-RANK <chr>, mean_freq <dbl>

### Is there any difference in the usage of *dude* by race?

``` r
org_clean %>% 
  mutate(RACE = str_to_title(RACE)) %>% 
  group_by(RACE) %>% 
  summarize(n = n_distinct(`RESP-ID`))
```

    # A tibble: 79 × 2
       RACE                         n
       <chr>                    <int>
     1 African American             1
     2 Anglo                        1
     3 Anglo Australian (White)     1
     4 Arab                         1
     5 Ashkenazi Jewish             1
     6 Asian                        6
     7 Asian-American               1
     8 Asian Indian                 2
     9 Asian, Korean                1
    10 Australian                   1
    # … with 69 more rows
…
     [1] "RESP-ID"        "ATUSE"          "RESP-GENDER"    "GENDER-4-TEXT" 
     [5] "SEXUALITY"      "AGE"            "MUSIC-BRO"      "MUSIC-GIRL"    
     [9] "MUSIC-DUDE"     "MUSIC-BRUH"     "MEETING-BRO"    "MEETING-GIRL"  
    [13] "MEETING-DUDE"   "MEETING-BRUH"   "SHUTUP-BRO"     "SHUTUP-GIRL"   
    [17] "SHUTUP-DUDE"    "SHUTUP-BRUH"    "GOODTOSEE-BRO"  "GOODTOSEE-GIRL"
    [21] "GOODTOSEE-DUDE" "GOODTOSEE-BRUH" "SIGNAL-BRO"     "SIGNAL-GIRL"   
    [25] "SIGNAL-DUDE"    "SIGNAL-BRUH"    "EMAIL-BRO"      "EMAIL-GIRL"    
    [29] "EMAIL-DUDE"     "EMAIL-BRUH"    

``` r
rank_clean %>% 
  select(contains(c("ID", "MUSIC")))
```

    # A tibble: 458 × 5
       `RESP-ID`         `MUSIC-BRO` `MUSIC-GIRL` `MUSIC-DUDE` `MUSIC-BRUH`
       <chr>                   <dbl>        <dbl>        <dbl>        <dbl>
     1 R_9FRUk95l1fWKDZf           2            4            1            3
     2 R_25EnKuXyTReLPE2           3            2            1            4
     3 R_2pLWRKVYVALdO6e           3            2            1            4
     4 R_PBtJhKNv0JB10GJ           2            3            1            4
     5 R_22wZhXw6DTa6krK           2            3            1            4
     6 R_305B45bvuFeKZUx           3            2            1            4
     7 R_vjZzVyscBlf29AB           3            2            1            4
     8 R_1IL6Ojmmkco93Hi           2            4            1            3
     9 R_0W1f5Y9lpxf2LWV           2            3            1            4
    10 R_3CCJoj9CLivBnt1           2            4            1            3
    # … with 448 more rows
…
